…
``` r
#What percentage of customers shop via the different channels?

channels <- market %>%
  dplyr::select(web,catalog,store)
channels
```

    ## # A tibble: 2,240 × 3
    ##      web catalog store
    ##    <dbl>   <dbl> <dbl>
    ##  1     8      10     4
    ##  2     1       1     2
    ##  3     8       2    10
    ##  4     2       0     4
    ##  5     5       3     6
    ##  6     6       4    10
    ##  7     7       3     7
    ##  8     4       0     4
    ##  9     3       0     2
    ## 10     1       0     0
    ## # … with 2,230 more rows
…
    ## # A tibble: 2 × 2
    ##   response     n
    ##   <fct>    <dbl>
    ## 1 0         1330
    ## 2 1          312

``` r
#What are the most popular items (in terms of amount spent) that are purchased from the retailer?

items <- market %>%
  dplyr::select(wines,fruits,meat,fish,sweets,gold)
items
```

    ## # A tibble: 2,240 × 6
    ##    wines fruits  meat  fish sweets  gold
    ##    <dbl>  <dbl> <dbl> <dbl>  <dbl> <dbl>
    ##  1   635     88   546   172     88    88
    ##  2    11      1     6     2      1     6
    ##  3   426     49   127   111     21    42
    ##  4    11      4    20    10      3     5
    ##  5   173     43   118    46     27    15
    ##  6   520     42    98     0     42    14
    ##  7   235     65   164    50     49    27
    ##  8    76     10    56     3      1    23
    ##  9    14      0    24     3      3     2
    ## 10    28      0     6     1      1    13
    ## # … with 2,230 more rows
…
predict(logistic_workflow, cust_new_prep, type = "prob") %>%
  bind_cols(.,predict(logistic_workflow, cust_new_prep)) %>%
  bind_cols(.,cust_new_prep) -> scored_cust_new



scored_cust_new %>% dplyr::select(id, EVENT_LABEL = .pred_class, PROB = .pred_1) %>%
  write_csv("new_cust_response.csv")
scored_cust_new
```

    ## # A tibble: 40 × 29
    ##    .pred_0 .pred_1 .pred_class    id birth education  mar_s…¹ income  kids teens
    ##      <dbl>   <dbl> <fct>       <dbl> <dbl> <fct>      <fct>    <dbl> <dbl> <dbl>
    ##  1   0.744  0.256  0             111  1946 Graduation Partner  37760     0     0
    ##  2   0.840  0.160  0             112  1949 Master     Married  76995     0     1
    ##  3   0.955  0.0450 0             113  1985 2nCycle    Single   33812     1     0
    ##  4   0.789  0.211  0             114  1982 Graduation Married  37040     0     0
    ##  5   0.177  0.823  1             115  1979 Graduation Married   2447     1     0
    ##  6   0.865  0.135  0             116  1949 PhD        Married  58607     0     1
    ##  7   0.939  0.0614 0             117  1954 PhD        Married  65324     0     1
    ##  8   0.945  0.0547 0             118  1951 Graduation Partner  40689     0     1
    ##  9   0.956  0.0441 0             119  1969 Graduation Single   18589     0     0
    ## 10   0.887  0.113  0             120  1976 Graduation Married  53359     1     1
    ## # … with 30 more rows, 19 more variables: recency <dbl>, wines <dbl>,
    ## #   fruits <dbl>, meat <dbl>, fish <dbl>, sweets <dbl>, gold <dbl>,
    ## #   deals <dbl>, web <dbl>, catalog <dbl>, store <dbl>, visits <dbl>,
    ## #   cmp3 <fct>, cmp4 <fct>, cmp5 <fct>, cmp1 <fct>, cmp2 <fct>, cmplain <fct>,
    ## #   days_enrolled <dbl>, and abbreviated variable name ¹​mar_stat
